@startuml
start;
repeat
    :idle;
    -> lectura de botón presionado;
    :debouncingPressed;
    -> transcurre tiempo de debouncing;
    :pressed;
    if()
    -> transcurren 2 segundos;
    :evento long-click >
    :longPressed;
    -> botón liberado;
    else
    ->botón liberado;
    :evento click>
    endif
    :debouncingIdle;
    -> transcurre tiempo de debouncing;
repeatwhile
detach
@enduml